1 1 1
1 10 20
100 200 125
201 210 89
900 1000 174
1000 900 174
22 22 16
830817 78266 509
537326 873063 525
230263 427278 449
937199 974631 507
824792 612831 509
259048 297126 407
766640 754452 380
69847 863195 525
270274 115005 443
21898 294453 443
227234 696706 509
443747 805052 509
877244 991873 507
954807 230826 525
742230 59733 509
114888 820450 509
863001 392963 525
978971 360842 525
937250 445257 525
179173 984581 525
830849 387468 509
246063 420145 449
86827 700466 509
729996 605687 509
761865 790602 468
908222 874573 445
8227 393802 443
482291 93204 449
474214 150636 449
313935 415239 449
266772 973189 525
2764 80973 351
381748 605465 470
486741 131159 449
623852 436290 470
990749 222582 525
515449 650995 509
528247 752993 509
802852 121756 509
681719 952950 525
899258 357478 525
201435 415815 449
824582 807589 450
947992 802492 525
654634 16568 509
313678 832133 509
107367 701771 509
189562 669399 509
958180 463446 525
629386 237681 509
891730 758845 525
7965 79135 351
126944 388887 443
427919 517643 470
259785 391560 441
272541 64481 443
762399 222760 509
552747 563493 421
346625 299564 441
239065 196470 443
565174 317666 470
408084 519661 470
799605 550721 509
710299 78189 509
565896 920683 525
406347 583507 470
365614 71599 443
135 526603 470
399166 836455 509
202711 189417 360
665350 768287 504
438041 497325 444
679275 627392 442
161898 877415 525
169288 707574 509
103144 199840 383
190673 889919 525
956884 803292 525
22725 376793 443
30499 987926 525
967817 610329 525
578020 814403 509
554066 868613 525
924126 791723 525
907729 937957 476
579981 749334 509
177524 271629 443
176959 104306 383
46431 16271 324
541271 285365 470
722721 850145 525
371019 12458 443
208129 353384 443
324619 747734 509
560254 783049 509
399422 631938 509
604834 181404 470
305277 967248 525
900913 44125 525
540564 151940 470
565891 560519 421
536469 521138 408
395627 29443 443
503376 428305 444
472242 115378 449
127525 737126 509
107687 57937 354
876241 619803 525
619363 243021 470
102284 634511 509
670011 242237 509
650044 145078 509
531486 485854 470
709155 708254 349
830327 9643 509
996082 101463 525
468306 864464 525
983259 158838 525
623215 599626 447
13547 289923 443
827029 592552 509
763314 37798 509
479950 253995 449
908270 574867 525
855099 364331 525
696574 143537 509
199546 464070 449
332006 467572 449
786379 299930 509
384943 747969 509
349996 184066 443
904888 353426 525
481877 792334 509
573831 24498 470
228837 622671 470
759503 751525 424
994376 16169 525
174147 557043 470
432592 117289 449
793156 944552 525
494837 352445 449
61679 243833 443
105351 366791 443
258802 70360 443
120447 132610 344
969394 404995 525
674831 377327 509
864803 219998 525
233558 623198 470
958141 411734 525
