645517 487174 509
561772 785809 509
13631 715777 509
251949 224015 443
987656 534768 525
51791 751729 509
109050 1802 354
755909 730731 424
326073 664029 509
361296 402856 436
178560 508971 449
221621 172922 386
788267 110361 509
501475 665425 509
366847 443710 449
939948 388275 525
84861 792192 509
877852 330266 525
421866 855812 525
64181 303238 443
982463 609955 525
846683 867640 419
779728 386102 509
634812 626089 509
900027 122541 525
188 459722 449
955562 396436 525
758200 606526 509
2657 278971 443
313518 303191 384
586426 43705 470
940628 469314 525
242042 36819 443
25858 32690 308
772976 487788 509
614002 61991 470
53019 667623 509
583042 296532 470
656487 85093 509
597480 127753 470
214690 495451 449
187095 895236 525
465137 203804 449
789635 826297 468
227008 84782 386
907418 524946 525
840040 277688 525
378911 595955 470
365854 40570 443
582337 703054 509
895480 762704 525
847986 29186 525
952867 122992 525
71850 264714 443
835577 205421 509
228478 766873 509
111645 715622 509
103354 27973 351
178667 798468 509
114884 942392 525
608610 598610 403
451570 612466 470
776055 364012 509
81722 325593 443
862044 476502 525
580843 332182 470
812374 13329 509
838081 639107 525
494045 568006 470
273535 465559 449
591159 844882 525
422472 96838 449
765860 822342 468
227982 105292 386
770858 46225 509
300434 887791 525
197768 800125 509
469400 945041 525
332410 771019 509
573904 224214 470
631476 950771 525
125170 490801 449
262445 669522 509
108344 86813 354
536185 263784 470
187115 231271 443
704223 280440 509
506320 217189 449
888336 745993 525
714889 911737 525
542939 33260 470
367549 215809 443
770051 120213 509
936387 64862 525
771054 125524 509
537540 161585 470
473263 83756 449
792097 895577 525
462558 771893 509
303084 387444 441
644522 417160 509
795551 833753 468
839490 630673 525
702836 58712 509
363114 610435 470
982227 209148 525
683720 616893 509
560324 820838 509
68374 776326 509
513342 583953 452
337773 419014 449
950412 608278 525
27298 309170 443
529882 148940 470
305820 545570 470
905241 218025 525
766889 948711 525
18348 365172 443
757541 449889 509
726430 925676 525
825279 242523 509
645004 100270 509
349157 488765 449
785614 343988 509
32294 345254 443
380128 303449 441
613491 275524 470
830397 374623 509
638311 281611 509
1823 647593 509
969232 934770 507
65469 795428 509
650219 630185 416
447472 286448 449
19058 22169 274
160899 432586 449
368765 694 443
79257 296719 443
116212 454673 449
853707 178061 525
345355 941268 525
255725 504479 449
192269 717980 509
334186 54155 443
38799 237900 443
898427 388868 525
79243 280087 443
774765 88179 509
775719 686317 504
329486 996500 525
464929 869725 525
416565 2895 449
568940 813768 509
278372 891297 525
687352 677463 398
44012 199753 383
971820 80360 525
945373 431552 525
245685 577999 470
625225 684728 509
97599 854356 525
805672 500674 509
67031 770236 509
233103 471441 449
125494 328475 443
995407 211669 525
59925 163763 383
374705 37508 443
659588 403222 509
339651 960531 525
111164 9590 354
616353 641430 509
855880 277124 525
279236 470025 449
316903 801621 509
905991 969116 507
50394 253073 443
930412 938205 445
898427 792754 525
536572 730176 509
197536 713518 509
113983 306784 443
443787 979152 525
83290 628425 509
771115 791229 437
833932 720847 468
745735 926018 525
737497 180096 509
550299 488902 470
656148 408762 509
678105 226062 509
664330 805113 504
356120 51171 443
90939 38583 351
154272 510831 449
522217 434467 470
676463 778753 504
380573 799327 509
559770 196860 470
407305 722845 509
155054 539269 470
942363 157358 525
136278 483818 449
126003 973713 525
416463 781117 509
311133 791869 509
919608 487634 525
325996 842192 525
607099 498278 470
56474 539635 470
46620 8876 324
312470 569101 470
596988 379341 470
699044 987253 525
602137 1396 470
529358 321898 470
72759 490922 449
304432 768723 509
893757 514355 525
440259 20214 449
538269 151293 470
384308 460875 449
996170 260413 525
998738 600923 525
942206 78815 525
703388 394954 509
530799 852896 525
992274 441620 525
743723 282395 509
386668 281379 441
848124 579244 525
912642 70002 525
612661 351268 470
573996 51593 470
798646 35017 509
9144 274229 443
177816 701454 509
265109 966951 525
438256 264313 449
100739 92561 341
438569 717122 509
835198 431282 509
946711 617826 525
909210 917318 476
359101 320541 441
28756 481339 449
452763 833539 509
695154 608227 509
860926 548161 525
891080 714303 525
