1 10 20
100 200 125
201 210 89
900 1000 174
653121 918574 525
939446 1855142 557
745038 884971 525
242486 847028 525
388006 261731 441
468060 1144716 528
223466 549845 470
655850 486318 509
905641 1355692 528
266431 1123751 528
716151 799030 468
332902 1559663 531
126028 1640485 531
857124 767895 525
796614 150330 509
697202 1763380 557
738438 1849761 557
634577 1616391 531
379052 1148122 528
897373 594 525
950903 692324 525
378579 559180 470
645167 718596 504
666111 694550 442
755096 1166979 528
870868 759786 525
155820 1211918 528
922469 1607922 531
652435 1737534 557
877137 668874 525
63461 1465032 528
811928 1067360 525
664851 1948291 557
646979 240901 509
890596 1094777 507
625182 866811 525
537010 1857270 557
584203 732167 509
944690 938099 507
212 345287 443
867527 931265 476
102302 1375029 528
431247 1011592 525
949211 1154048 528
572386 1954841 557
147587 1609575 531
443628 1125633 528
894453 1344333 528
508045 1170249 528
468843 1666820 531
702104 1433702 528
9759 1706245 531
339960 1013905 525
548691 988548 525
410696 704309 509
438160 1693775 531
472930 1220922 528
435497 1492370 528
272148 1094439 525
513248 1161906 528
180991 403433 443
647242 536505 509
962895 510670 525
574826 828638 509
661269 59413 509
811455 1564179 531
674628 162660 509
924022 112937 525
769078 1339354 528
879823 496415 525
396292 294804 441
337278 1159293 528
605153 1655971 531
435136 11371 449
696865 898817 525
792032 1948441 557
915915 120432 525
871598 293899 525
29709 271937 443
859599 737301 525
481501 554393 470
859133 690638 525
155167 1194368 528
53923 1381134 528
820169 1575163 531
395749 456889 449
359649 1439690 528
710535 362978 509
665204 176276 509
953749 573037 525
242067 544100 470
460012 1822254 557
534395 17515 470
233777 1792891 557
844728 1655148 531
169642 197478 365
761767 659273 504
913998 447662 525
220540 269797 443
821307 1567720 531
268064 1721115 531
856601 1346800 528
494514 336065 449
452499 312734 449
374392 636949 509
111012 294003 443
162096 1156945 528
679834 183709 509
183710 1581953 531
440968 929207 525
21171 425119 449
63422 1706980 531
754916 1971375 557
561689 1651826 531
595787 1646433 531
551877 1269524 528
651198 264324 509
422697 1429358 528
337149 1391045 528
803971 530047 509
768065 1114630 525
262292 361928 441
202761 1291816 528
834403 645310 504
541644 1906328 557
706711 1370549 528
449230 1926480 557
100751 1461910 528
134093 1417989 528
186796 1457283 528
613049 1264577 528
793641 214058 509
145235 1069762 525
585404 1365874 528
189324 1622424 531
228176 1146732 528
295745 1614183 531
633710 251487 509
936923 1619711 531
12598 927365 525
97973 1644113 531
219588 876387 525
569377 328429 470
924467 1410766 528
960045 454315 525
68246 209477 383
793343 1455437 528
790890 759528 468
858212 338245 525
442002 1128463 528
104559 457829 449
927739 1766501 557
61072 1499588 528
41016 199601 383
445590 1396783 528
204880 127669 383
821779 692139 504
314167 1324958 528
544474 619858 452
547677 1782468 557
808352 1617386 531
705496 69622 509
550388 1961082 557
218284 1504325 531
7527 1706001 531
653856 1119501 528
887647 617218 525
646491 1876754 557
603408 1346608 528
786756 42413 509
843871 360395 525
910803 1997278 557
143310 1527849 531
189742 756739 509
730205 1579358 531
48637 1369448 528
813577 865039 525
453737 885992 525
259037 127019 443
899509 593182 525
521631 1708256 531
252457 1948393 557
490963 1410506 528
483779 1844960 557
667622 1667903 531
766203 1822128 557
493450 765480 509
288598 1200122 528
745143 93221 509
665553 131386 509
440629 1229277 528
768250 315117 509
612192 1998576 557
52457 110280 354
486311 1959948 557
883345 302044 525
239370 657060 509
724635 507576 509
956084 1491818 528
105471 1984427 557
207607 345931 443
754240 1742943 557
24025 1784824 557
6589 1206847 528
598079 1004143 525
12252 36855 324
875354 171871 525
854204 739942 525
307164 841642 525
306282 1650300 531
212296 1495069 528
456828 1597540 531
814036 903891 525
408207 30863 443
944218 764264 525
903734 1476636 528
746839 573861 509
540642 247625 470
999856 1575210 531
608386 1131068 528
976147 423675 525
900359 478527 525
110459 1979663 557
5193 1608534 531
681953 950401 525
556420 168687 470
136105 148638 375
426058 1599128 531
888766 1633452 531
232128 1632462 531
758816 1217263 528
867266 1254582 528
802060 69115 509
665855 1978569 557
122992 719896 509
67508 1270352 528
620407 1268714 528
704952 574561 509
480104 693130 509
691622 324442 509
501340 349357 449
758452 1342465 528
762148 778614 468
705330 386634 509
286424 1234371 528
985638 1304846 528
25886 1406077 528
886999 616304 525
41545 1863934 557
91634 1578484 531
